%YAML 1.1
%TAG !u! tag:unity3d.com,2011:
--- !u!114 &-3195927277461820997
MonoBehaviour:
  m_ObjectHideFlags: 0
  m_CorrespondingSourceObject: {fileID: 0}
  m_PrefabInstance: {fileID: 0}
  m_PrefabAsset: {fileID: 0}
  m_GameObject: {fileID: 185822448010695060}
  m_Enabled: 1
  m_EditorHideFlags: 0
  m_Script: {fileID: 11500000, guid: e0a22b5dfe22f2549b047ad1b7a1e0e7, type: 3}
  m_Name: 
  m_EditorClassIdentifier: 
  referenceCamera: {fileID: 0}
  reverseFace: 1
  axis: 0
--- !u!1001 &8197372121327919205
PrefabInstance:
  m_ObjectHideFlags: 0
  serializedVersion: 2
  m_Modification:
    m_TransformParent: {fileID: 0}
    m_Modifications:
    - target: {fileID: 246619078, guid: d650206994aa53c4885992fc44b869da, type: 3}
      propertyPath: m_Enabled
      value: 0
      objectReference: {fileID: 0}
    - target: {fileID: 8311047913429414801, guid: d650206994aa53c4885992fc44b869da,
        type: 3}
      propertyPath: m_TagString
      value: VideoPlayer
      objectReference: {fileID: 0}
    - target: {fileID: 8311047913429414802, guid: d650206994aa53c4885992fc44b869da,
        type: 3}
      propertyPath: m_Volume
      value: 0.027
      objectReference: {fileID: 0}
    - target: {fileID: 8311047914709873136, guid: d650206994aa53c4885992fc44b869da,
        type: 3}
      propertyPath: m_LocalPosition.x
      value: 0
      objectReference: {fileID: 0}
    - target: {fileID: 8311047914709873136, guid: d650206994aa53c4885992fc44b869da,
        type: 3}
      propertyPath: m_LocalPosition.y
      value: 0
      objectReference: {fileID: 0}
    - target: {fileID: 8311047914709873136, guid: d650206994aa53c4885992fc44b869da,
        type: 3}
      propertyPath: m_LocalPosition.z
      value: 0
      objectReference: {fileID: 0}
    - target: {fileID: 8311047914709873136, guid: d650206994aa53c4885992fc44b869da,
        type: 3}
      propertyPath: m_LocalRotation.x
      value: 0
      objectReference: {fileID: 0}
    - target: {fileID: 8311047914709873136, guid: d650206994aa53c4885992fc44b869da,
        type: 3}
      propertyPath: m_LocalRotation.y
      value: 1
      objectReference: {fileID: 0}
    - target: {fileID: 8311047914709873136, guid: d650206994aa53c4885992fc44b869da,
        type: 3}
      propertyPath: m_LocalRotation.z
      value: 0
      objectReference: {fileID: 0}
    - target: {fileID: 8311047914709873136, guid: d650206994aa53c4885992fc44b869da,
        type: 3}
      propertyPath: m_LocalRotation.w
      value: 0
      objectReference: {fileID: 0}
    - target: {fileID: 8311047914709873136, guid: d650206994aa53c4885992fc44b869da,
        type: 3}
      propertyPath: m_RootOrder
      value: 0
      objectReference: {fileID: 0}
    - target: {fileID: 8311047914709873136, guid: d650206994aa53c4885992fc44b869da,
        type: 3}
      propertyPath: m_LocalEulerAnglesHint.x
      value: 0
      objectReference: {fileID: 0}
    - target: {fileID: 8311047914709873136, guid: d650206994aa53c4885992fc44b869da,
        type: 3}
      propertyPath: m_LocalEulerAnglesHint.y
      value: 180
      objectReference: {fileID: 0}
    - target: {fileID: 8311047914709873136, guid: d650206994aa53c4885992fc44b869da,
        type: 3}
      propertyPath: m_LocalEulerAnglesHint.z
      value: 0
      objectReference: {fileID: 0}
    - target: {fileID: 8311047914709873136, guid: d650206994aa53c4885992fc44b869da,
        type: 3}
      propertyPath: m_LocalScale.x
      value: 1
      objectReference: {fileID: 0}
    - target: {fileID: 8311047914709873136, guid: d650206994aa53c4885992fc44b869da,
        type: 3}
      propertyPath: m_LocalScale.y
      value: 1
      objectReference: {fileID: 0}
    - target: {fileID: 8311047914709873136, guid: d650206994aa53c4885992fc44b869da,
        type: 3}
      propertyPath: m_LocalScale.z
      value: 1
      objectReference: {fileID: 0}
    - target: {fileID: 8311047914709873137, guid: d650206994aa53c4885992fc44b869da,
        type: 3}
      propertyPath: m_Name
      value: Greenscreen Video Feed
      objectReference: {fileID: 0}
    m_RemovedComponents: []
  m_SourcePrefab: {fileID: 100100000, guid: d650206994aa53c4885992fc44b869da, type: 3}
--- !u!1 &185822448010695060 stripped
GameObject:
  m_CorrespondingSourceObject: {fileID: 8311047914709873137, guid: d650206994aa53c4885992fc44b869da,
    type: 3}
  m_PrefabInstance: {fileID: 8197372121327919205}
  m_PrefabAsset: {fileID: 0}
