[
  {
    "contentName": "Justin Molinari",
    "contentType": "Live Video",
    "contentTimelineID": 1,
    "contentTimelineTrackID": 1,
    "contentPosition": {
      "x": -3.0,
      "y": 1.5,
      "z": 3.0
    },
    "contentRotation": {
      "x": 0.0,
      "y": 45.0,
      "z": 3.0
    },
    "contentScale": {
      "x": 2.0,
      "y": 2.0,
      "z": 2.0
    },
    "contentPrefabID": 1,
    "contentVideo": "null"
  },
  {
    "contentName": "Kojo Opuni",
    "contentType": "Pre-Recorded Video",
    "contentTimeline": 1,
    "contentPosition": {
      "x": 3.0,
      "y": 1.5,
      "z": 3.0
    },
    "contentPrefabID": 1,
    "contentVideo": "null"
  }
]