%YAML 1.1
%TAG !u! tag:unity3d.com,2011:
--- !u!1045 &1
EditorBuildSettings:
  m_ObjectHideFlags: 0
  serializedVersion: 2
  m_Scenes:
  - enabled: 1
    path: Assets/Gaga/Scenes/GagaPrototypeStage.unity
    guid: 3edbcf9826e24204f8161d1a9edcff34
  m_configObjects: {}
