%YAML 1.1
%TAG !u! tag:unity3d.com,2011:
--- !u!114 &-2189175944279092669
MonoBehaviour:
  m_ObjectHideFlags: 11
  m_CorrespondingSourceObject: {fileID: 0}
  m_PrefabInstance: {fileID: 0}
  m_PrefabAsset: {fileID: 0}
  m_GameObject: {fileID: 0}
  m_Enabled: 1
  m_EditorHideFlags: 0
  m_Script: {fileID: 11500000, guid: d0353a89b1f911e48b9e16bdc9f2e058, type: 3}
  m_Name: 
  m_EditorClassIdentifier: 
  version: 1
--- !u!21 &2100000
Material:
  serializedVersion: 6
  m_ObjectHideFlags: 0
  m_CorrespondingSourceObject: {fileID: 0}
  m_PrefabInstance: {fileID: 0}
  m_PrefabAsset: {fileID: 0}
  m_Name: LFL
  m_Shader: {fileID: 4800000, guid: 485e4c1583068374db77919ddf4a3037, type: 3}
  m_ShaderKeywords: 
  m_LightmapFlags: 4
  m_EnableInstancingVariants: 0
  m_DoubleSidedGI: 0
  m_CustomRenderQueue: -1
  stringTagMap: {}
  disabledShaderPasses: []
  m_SavedProperties:
    serializedVersion: 3
    m_TexEnvs:
    - _BaseMap:
        m_Texture: {fileID: 0}
        m_Scale: {x: 1, y: 1}
        m_Offset: {x: 0, y: 0}
    - _BgTex:
        m_Texture: {fileID: 0}
        m_Scale: {x: 1, y: 1}
        m_Offset: {x: 0, y: 0}
    - _BumpMap:
        m_Texture: {fileID: 0}
        m_Scale: {x: 1, y: 1}
        m_Offset: {x: 0, y: 0}
    - _EmissionMap:
        m_Texture: {fileID: 0}
        m_Scale: {x: 1, y: 1}
        m_Offset: {x: 0, y: 0}
    - _MainTex:
        m_Texture: {fileID: 0}
        m_Scale: {x: 1, y: 1}
        m_Offset: {x: 0, y: 0}
    - _MetallicGlossMap:
        m_Texture: {fileID: 0}
        m_Scale: {x: 1, y: 1}
        m_Offset: {x: 0, y: 0}
    - _OcclusionMap:
        m_Texture: {fileID: 0}
        m_Scale: {x: 1, y: 1}
        m_Offset: {x: 0, y: 0}
    - _SpecGlossMap:
        m_Texture: {fileID: 0}
        m_Scale: {x: 1, y: 1}
        m_Offset: {x: 0, y: 0}
    m_Floats:
    - _Alpha: 0
    - _AlphaClip: 0
    - _Blend: 0
    - _BumpScale: 1
    - _Chroma: 0.203
    - _Cull: 2
    - _Cutoff: 0.5
    - _DChroma: 0.25
    - _DChromaT: 0
    - _DLuma: 0.5
    - _DLumaT: 0.05
    - _DstBlend: 0
    - _EnvironmentReflections: 1
    - _GlossMapScale: 0
    - _Glossiness: 0
    - _GlossyReflections: 0
    - _Luma: 0.046
    - _Metallic: 0
    - _OcclusionStrength: 1
    - _QueueOffset: 0
    - _ReceiveShadows: 1
    - _Saturation: 0.513
    - _Smoothness: 0.5
    - _SmoothnessTextureChannel: 0
    - _SpecularHighlights: 1
    - _SrcBlend: 1
    - _Surface: 0
    - _WorkflowMode: 1
    - _ZWrite: 1
    m_Colors:
    - _BaseColor: {r: 1, g: 1, b: 1, a: 1}
    - _BgColor: {r: 1, g: 1, b: 1, a: 1}
    - _Color: {r: 1, g: 1, b: 1, a: 1}
    - _EmissionColor: {r: 0, g: 0, b: 0, a: 1}
    - _KeyColor: {r: 0.27634385, g: 0.8490566, b: 0.69064665, a: 1}
    - _SpecColor: {r: 0.19999996, g: 0.19999996, b: 0.19999996, a: 1}
    - _TintColor: {r: 1, g: 1, b: 1, a: 0.5}
